Computational Text Analysis - 16 Data Cleaning
…
Let’s sort the dataframe by total population to identify the state with the largest population in 2020.

state_population_dirty %>%
  filter(year == 2020) %>%
  arrange(desc(total_pop))

# A tibble: 51 × 11
   geoid state                 year total_pop white_alone_pop black_alone_pop
   <chr> <chr>                <dbl> <chr>               <dbl>           <dbl>
 1 26    Michigan              2020 9973907           7735902         1360149
 2 10    Delaware              2020 967679             652587          212795
 3 34    New Jersey            2020 8885418           5820147         1189681
 4 46    South Dakota          2020 879336             735228           18836
 5 51    Virginia              2020 8509358           5643436         1620649
 6 38    North Dakota          2020 760394             651470           23959
 7 53    Washington            2020 7512465           5523881          290245
 8 02    Alaska                2020 736990             466961           23894
 9 04    Arizona               2020 7174064           5292498          325105
10 11    District of Columbia  2020 701974             288306          318631
# ℹ 41 more rows
# ℹ 5 more variables: amer_ind_ak_native_alone_pop <dbl>,
#   asian_alone_pop <dbl>, native_hi_alone_pop <dbl>,
#   other_race_alone_pop <dbl>, two_or_more_races_pop <dbl>
…
Now when we sort, it works.

state_population_dirty %>%
  filter(year == 2020) %>%
  arrange(desc(total_pop))

# A tibble: 51 × 11
   geoid state           year total_pop white_alone_pop black_alone_pop
   <chr> <chr>          <dbl>     <dbl>           <dbl>           <dbl>
 1 06    California      2020  39346023        22053721         2250962
 2 48    Texas           2020  28635442        19805623         3464424
 3 12    Florida         2020  21216924        15199588         3381061
 4 36    New York        2020  19514849        12160045         3002401
 5 42    Pennsylvania    2020  12794885        10155004         1419582
 6 17    Illinois        2020  12716164         8874067         1796660
 7 39    Ohio            2020  11675275         9394878         1442655
 8 13    Georgia         2020  10516579         6020265         3319844
 9 37    North Carolina  2020  10386227         7019443         2217522
10 26    Michigan        2020   9973907         7735902         1360149
# ℹ 41 more rows
# ℹ 5 more variables: amer_ind_ak_native_alone_pop <dbl>,
#   asian_alone_pop <dbl>, native_hi_alone_pop <dbl>,
#   other_race_alone_pop <dbl>, two_or_more_races_pop <dbl>
…
# A tibble: 1 × 1
  total_us_black_alone_population
                            <dbl>
1                              NA

We get an NA value, which isn’t correct. Let’s examine the values in that column to see why.

state_population_dirty 

# A tibble: 255 × 11
   geoid state    year total_pop white_alone_pop black_alone_pop
   <chr> <chr>   <dbl>     <dbl>           <dbl>           <dbl>
 1 01    Alabama  2015   4830620         3325464              NA
 2 01    Alabama  2016   4841164         3325037              NA
 3 01    Alabama  2017   4850771         3317702              NA
 4 01    Alabama  2018   4864680         3317453              NA
 5 01    Alabama  2020   4893186         3302834              NA
 6 02    Alaska   2015    733375          484250           25022
 7 02    Alaska   2016    736855          483518           24443
 8 02    Alaska   2017    738565          481971           23702
 9 02    Alaska   2018    738516          478834           24129
10 02    Alaska   2020    736990          466961           23894
# ℹ 245 more rows
# ℹ 5 more variables: amer_ind_ak_native_alone_pop <dbl>,
#   asian_alone_pop <dbl>, native_hi_alone_pop <dbl>,
#   other_race_alone_pop <dbl>, two_or_more_races_pop <dbl>
…
But! That’s not the right answer. We want to know the total for the U.S. including Alabama in 2020. So, we need to fix that value. We look up the value on the Census website, and determine it’s 1,301,319 for 2020. So let’s update the column. This uses a function called case_when() with mutate().

Here’s how to interpret what the function below says.

“Overwrite the black_alone_pop column with new values in one of the rows, and the old values for every other row. If the state column equals Alabama AND (the &) the year column equals 2020 THEN (the tilde or ~) put the value 1301319. In any other case (any other state, or Alabama in any other year than 2020), THEN keep the value that currently exists in the black_alone_pop column.

state_population_dirty <- state_population_dirty %>%
  mutate(black_alone_pop = case_when(
    state == "Alabama" & year == 2020 ~ 1301319,
    TRUE ~ black_alone_pop
  ))

state_population_dirty

# A tibble: 255 × 11
   geoid state    year total_pop white_alone_pop black_alone_pop
   <chr> <chr>   <dbl>     <dbl>           <dbl>           <dbl>
 1 01    Alabama  2015   4830620         3325464              NA
 2 01    Alabama  2016   4841164         3325037              NA
 3 01    Alabama  2017   4850771         3317702              NA
 4 01    Alabama  2018   4864680         3317453              NA
 5 01    Alabama  2020   4893186         3302834         1301319
 6 02    Alaska   2015    733375          484250           25022
 7 02    Alaska   2016    736855          483518           24443
 8 02    Alaska   2017    738565          481971           23702
 9 02    Alaska   2018    738516          478834           24129
10 02    Alaska   2020    736990          466961           23894
# ℹ 245 more rows
# ℹ 5 more variables: amer_ind_ak_native_alone_pop <dbl>,
#   asian_alone_pop <dbl>, native_hi_alone_pop <dbl>,
#   other_race_alone_pop <dbl>, two_or_more_races_pop <dbl>
…
